Data Wrangling and Visualization – BMSC 620: Introduction to Biostatistics
…
Your notes:

Tibbles

A tibble is the tidyverse version of a data frame. It’s essentially the same thing, just with nicer printing.

# Print the data
nhanes.samp.adult

# A tibble: 135 × 76
      ID SurveyYr Gender   Age AgeDecade AgeMonths Race1   Race3 Education     
 * <int> <fct>    <fct>  <int> <fct>         <int> <fct>   <fct> <fct>         
 1 63147 2011_12  male      41 " 40-49"         NA White   White Some College  
 2 57165 2009_10  male      48 " 40-49"        586 Black   <NA>  High School   
 3 69465 2011_12  female    50 " 50-59"         NA White   White College Grad  
 4 57313 2009_10  female    74 " 70+"          889 White   <NA>  College Grad  
 5 56047 2009_10  female    27 " 20-29"        329 White   <NA>  9 - 11th Grade
 6 57056 2009_10  male      26 " 20-29"        316 Mexican <NA>  High School   
 7 54643 2009_10  female    41 " 40-49"        503 White   <NA>  College Grad  
 8 53095 2009_10  female    52 " 50-59"        632 White   <NA>  9 - 11th Grade
 9 67434 2011_12  male      56 " 50-59"         NA White   White College Grad  
10 60273 2009_10  male      39 " 30-39"        472 Black   <NA>  9 - 11th Grade
# ℹ 125 more rows
# ℹ 67 more variables: MaritalStatus <fct>, HHIncome <fct>, HHIncomeMid <int>,
#   Poverty <dbl>, HomeRooms <int>, HomeOwn <fct>, Work <fct>, Weight <dbl>,
#   Length <dbl>, HeadCirc <dbl>, Height <dbl>, BMI <dbl>,
#   BMICatUnder20yrs <fct>, BMI_WHO <fct>, Pulse <int>, BPSysAve <int>,
#   BPDiaAve <int>, BPSys1 <int>, BPDia1 <int>, BPSys2 <int>, BPDia2 <int>,
#   BPSys3 <int>, BPDia3 <int>, Testosterone <dbl>, DirectChol <dbl>, …
…
Filter with multiple conditions

# Keep only females over age 50
nhanes.samp.adult %>%
  filter(Gender == "female", Age > 50)

# A tibble: 23 × 76
      ID SurveyYr Gender   Age AgeDecade AgeMonths Race1    Race3    Education  
   <int> <fct>    <fct>  <int> <fct>         <int> <fct>    <fct>    <fct>      
 1 57313 2009_10  female    74 " 70+"          889 White    <NA>     College Gr…
 2 53095 2009_10  female    52 " 50-59"        632 White    <NA>     9 - 11th G…
 3 58284 2009_10  female    72 " 70+"          868 White    <NA>     College Gr…
 4 67285 2011_12  female    70 " 70+"           NA Hispanic Hispanic College Gr…
 5 63510 2011_12  female    56 " 50-59"         NA White    White    Some Colle…
 6 59171 2009_10  female    74 " 70+"          897 White    <NA>     High School
 7 58824 2009_10  female    59 " 50-59"        712 White    <NA>     High School
 8 64676 2011_12  female    56 " 50-59"         NA Hispanic Hispanic Some Colle…
 9 55436 2009_10  female    57 " 50-59"        694 Other    <NA>     8th Grade  
10 56254 2009_10  female    59 " 50-59"        714 White    <NA>     9 - 11th G…
# ℹ 13 more rows
# ℹ 67 more variables: MaritalStatus <fct>, HHIncome <fct>, HHIncomeMid <int>,
#   Poverty <dbl>, HomeRooms <int>, HomeOwn <fct>, Work <fct>, Weight <dbl>,
#   Length <dbl>, HeadCirc <dbl>, Height <dbl>, BMI <dbl>,
#   BMICatUnder20yrs <fct>, BMI_WHO <fct>, Pulse <int>, BPSysAve <int>,
#   BPDiaAve <int>, BPSys1 <int>, BPDia1 <int>, BPSys2 <int>, BPDia2 <int>,
#   BPSys3 <int>, BPDia3 <int>, Testosterone <dbl>, DirectChol <dbl>, …

Other comparison operators

# Greater than or equal to
nhanes.samp.adult %>%
  filter(BMI >= 30)

# A tibble: 50 × 76
      ID SurveyYr Gender   Age AgeDecade AgeMonths Race1    Race3    Education  
   <int> <fct>    <fct>  <int> <fct>         <int> <fct>    <fct>    <fct>      
 1 63147 2011_12  male      41 " 40-49"         NA White    White    Some Colle…
 2 57056 2009_10  male      26 " 20-29"        316 Mexican  <NA>     High School
 3 53095 2009_10  female    52 " 50-59"        632 White    <NA>     9 - 11th G…
 4 60273 2009_10  male      39 " 30-39"        472 Black    <NA>     9 - 11th G…
 5 58162 2009_10  female    32 " 30-39"        391 White    <NA>     Some Colle…
 6 67285 2011_12  female    70 " 70+"           NA Hispanic Hispanic College Gr…
 7 69403 2011_12  male      61 " 60-69"         NA White    White    College Gr…
 8 51912 2009_10  female    27 " 20-29"        332 White    <NA>     9 - 11th G…
 9 71564 2011_12  male      25 " 20-29"         NA White    White    High School
10 58845 2009_10  male      63 " 60-69"        760 White    <NA>     9 - 11th G…
# ℹ 40 more rows
# ℹ 67 more variables: MaritalStatus <fct>, HHIncome <fct>, HHIncomeMid <int>,
#   Poverty <dbl>, HomeRooms <int>, HomeOwn <fct>, Work <fct>, Weight <dbl>,
#   Length <dbl>, HeadCirc <dbl>, Height <dbl>, BMI <dbl>,
#   BMICatUnder20yrs <fct>, BMI_WHO <fct>, Pulse <int>, BPSysAve <int>,
#   BPDiaAve <int>, BPSys1 <int>, BPDia1 <int>, BPSys2 <int>, BPDia2 <int>,
#   BPSys3 <int>, BPDia3 <int>, Testosterone <dbl>, DirectChol <dbl>, …

Your notes:

select()

select() keeps (or drops) specific columns.

Select certain columns

# Keep only demographic variables
nhanes.samp.adult %>%
  select(Age, Gender, Race1, Education)

# A tibble: 135 × 4
     Age Gender Race1   Education     
   <int> <fct>  <fct>   <fct>         
 1    41 male   White   Some College  
 2    48 male   Black   High School   
 3    50 female White   College Grad  
 4    74 female White   College Grad  
 5    27 female White   9 - 11th Grade
 6    26 male   Mexican High School   
 7    41 female White   College Grad  
 8    52 female White   9 - 11th Grade
 9    56 male   White   College Grad  
10    39 male   Black   9 - 11th Grade
# ℹ 125 more rows

Select a range of columns

# Keep columns from Age through Education
nhanes.samp.adult %>%
  select(Age:Education)

# A tibble: 135 × 6
     Age AgeDecade AgeMonths Race1   Race3 Education     
   <int> <fct>         <int> <fct>   <fct> <fct>         
 1    41 " 40-49"         NA White   White Some College  
 2    48 " 40-49"        586 Black   <NA>  High School   
 3    50 " 50-59"         NA White   White College Grad  
 4    74 " 70+"          889 White   <NA>  College Grad  
 5    27 " 20-29"        329 White   <NA>  9 - 11th Grade
 6    26 " 20-29"        316 Mexican <NA>  High School   
 7    41 " 40-49"        503 White   <NA>  College Grad  
 8    52 " 50-59"        632 White   <NA>  9 - 11th Grade
 9    56 " 50-59"         NA White   White College Grad  
10    39 " 30-39"        472 Black   <NA>  9 - 11th Grade
# ℹ 125 more rows

Drop columns

# Drop the ID column
nhanes.samp.adult %>%
  select(-ID)

# A tibble: 135 × 75
   SurveyYr Gender   Age AgeDecade AgeMonths Race1 Race3 Education MaritalStatus
   <fct>    <fct>  <int> <fct>         <int> <fct> <fct> <fct>     <fct>        
 1 2011_12  male      41 " 40-49"         NA White White Some Col… Married      
 2 2009_10  male      48 " 40-49"        586 Black <NA>  High Sch… Married      
 3 2011_12  female    50 " 50-59"         NA White White College … Divorced     
 4 2009_10  female    74 " 70+"          889 White <NA>  College … Widowed      
 5 2009_10  female    27 " 20-29"        329 White <NA>  9 - 11th… NeverMarried 
 6 2009_10  male      26 " 20-29"        316 Mexi… <NA>  High Sch… NeverMarried 
 7 2009_10  female    41 " 40-49"        503 White <NA>  College … Married      
 8 2009_10  female    52 " 50-59"        632 White <NA>  9 - 11th… NeverMarried 
 9 2011_12  male      56 " 50-59"         NA White White College … Married      
10 2009_10  male      39 " 30-39"        472 Black <NA>  9 - 11th… Married      
# ℹ 125 more rows
# ℹ 66 more variables: HHIncome <fct>, HHIncomeMid <int>, Poverty <dbl>,
#   HomeRooms <int>, HomeOwn <fct>, Work <fct>, Weight <dbl>, Length <dbl>,
#   HeadCirc <dbl>, Height <dbl>, BMI <dbl>, BMICatUnder20yrs <fct>,
#   BMI_WHO <fct>, Pulse <int>, BPSysAve <int>, BPDiaAve <int>, BPSys1 <int>,
#   BPDia1 <int>, BPSys2 <int>, BPDia2 <int>, BPSys3 <int>, BPDia3 <int>,
#   Testosterone <dbl>, DirectChol <dbl>, TotChol <dbl>, UrineVol1 <int>, …
…
Important: mutate() does NOT change your original data unless you save it!

Create a new column

# Create BMI categories
nhanes.samp.adult %>%
  mutate(bmi_category = case_when(
    BMI < 18.5 ~ "Underweight",
    BMI < 25 ~ "Normal",
    BMI < 30 ~ "Overweight",
    BMI >= 30 ~ "Obese"
  ))

# A tibble: 135 × 77
      ID SurveyYr Gender   Age AgeDecade AgeMonths Race1   Race3 Education     
   <int> <fct>    <fct>  <int> <fct>         <int> <fct>   <fct> <fct>         
 1 63147 2011_12  male      41 " 40-49"         NA White   White Some College  
 2 57165 2009_10  male      48 " 40-49"        586 Black   <NA>  High School   
 3 69465 2011_12  female    50 " 50-59"         NA White   White College Grad  
 4 57313 2009_10  female    74 " 70+"          889 White   <NA>  College Grad  
 5 56047 2009_10  female    27 " 20-29"        329 White   <NA>  9 - 11th Grade
 6 57056 2009_10  male      26 " 20-29"        316 Mexican <NA>  High School   
 7 54643 2009_10  female    41 " 40-49"        503 White   <NA>  College Grad  
 8 53095 2009_10  female    52 " 50-59"        632 White   <NA>  9 - 11th Grade
 9 67434 2011_12  male      56 " 50-59"         NA White   White College Grad  
10 60273 2009_10  male      39 " 30-39"        472 Black   <NA>  9 - 11th Grade
# ℹ 125 more rows
# ℹ 68 more variables: MaritalStatus <fct>, HHIncome <fct>, HHIncomeMid <int>,
#   Poverty <dbl>, HomeRooms <int>, HomeOwn <fct>, Work <fct>, Weight <dbl>,
#   Length <dbl>, HeadCirc <dbl>, Height <dbl>, BMI <dbl>,
#   BMICatUnder20yrs <fct>, BMI_WHO <fct>, Pulse <int>, BPSysAve <int>,
#   BPDiaAve <int>, BPSys1 <int>, BPDia1 <int>, BPSys2 <int>, BPDia2 <int>,
#   BPSys3 <int>, BPDia3 <int>, Testosterone <dbl>, DirectChol <dbl>, …

Create multiple columns at once

# Create height in meters and weight in kg
nhanes.samp.adult %>%
  mutate(
    height_m = Height / 100,
    weight_kg = Weight * 0.453592
  )

# A tibble: 135 × 78
      ID SurveyYr Gender   Age AgeDecade AgeMonths Race1   Race3 Education     
   <int> <fct>    <fct>  <int> <fct>         <int> <fct>   <fct> <fct>         
 1 63147 2011_12  male      41 " 40-49"         NA White   White Some College  
 2 57165 2009_10  male      48 " 40-49"        586 Black   <NA>  High School   
 3 69465 2011_12  female    50 " 50-59"         NA White   White College Grad  
 4 57313 2009_10  female    74 " 70+"          889 White   <NA>  College Grad  
 5 56047 2009_10  female    27 " 20-29"        329 White   <NA>  9 - 11th Grade
 6 57056 2009_10  male      26 " 20-29"        316 Mexican <NA>  High School   
 7 54643 2009_10  female    41 " 40-49"        503 White   <NA>  College Grad  
 8 53095 2009_10  female    52 " 50-59"        632 White   <NA>  9 - 11th Grade
 9 67434 2011_12  male      56 " 50-59"         NA White   White College Grad  
10 60273 2009_10  male      39 " 30-39"        472 Black   <NA>  9 - 11th Grade
# ℹ 125 more rows
# ℹ 69 more variables: MaritalStatus <fct>, HHIncome <fct>, HHIncomeMid <int>,
#   Poverty <dbl>, HomeRooms <int>, HomeOwn <fct>, Work <fct>, Weight <dbl>,
#   Length <dbl>, HeadCirc <dbl>, Height <dbl>, BMI <dbl>,
#   BMICatUnder20yrs <fct>, BMI_WHO <fct>, Pulse <int>, BPSysAve <int>,
#   BPDiaAve <int>, BPSys1 <int>, BPDia1 <int>, BPSys2 <int>, BPDia2 <int>,
#   BPSys3 <int>, BPDia3 <int>, Testosterone <dbl>, DirectChol <dbl>, …
…
Combining dplyr verbs

You can chain multiple operations together with the pipe!

# Filter, select, and mutate in one pipeline
nhanes.samp.adult %>%
  filter(Age >= 40) %>%
  select(Age, Gender, BMI, Diabetes) %>%
  mutate(bmi_category = case_when(
    BMI < 25 ~ "Normal or underweight",
    BMI >= 25 ~ "Overweight or obese"
  ))

# A tibble: 74 × 5
     Age Gender   BMI Diabetes bmi_category         
   <int> <fct>  <dbl> <fct>    <chr>                
 1    41 male    30   No       Overweight or obese  
 2    48 male    27.4 No       Overweight or obese  
 3    50 female  26.9 No       Overweight or obese  
 4    74 female  24.7 No       Normal or underweight
 5    41 female  23.0 No       Normal or underweight
 6    52 female  33.5 No       Overweight or obese  
 7    56 male    26.8 No       Overweight or obese  
 8    72 female  25.2 No       Overweight or obese  
 9    49 female  24.4 No       Normal or underweight
10    49 male    23.8 No       Normal or underweight
# ℹ 64 more rows

Your notes:

group_by()

group_by() groups your data by one or more variables. It’s most useful when combined with other functions.

# Group by gender
nhanes.samp.adult %>%
  group_by(Gender)

# A tibble: 135 × 76
# Groups:   Gender [2]
      ID SurveyYr Gender   Age AgeDecade AgeMonths Race1   Race3 Education     
   <int> <fct>    <fct>  <int> <fct>         <int> <fct>   <fct> <fct>         
 1 63147 2011_12  male      41 " 40-49"         NA White   White Some College  
 2 57165 2009_10  male      48 " 40-49"        586 Black   <NA>  High School   
 3 69465 2011_12  female    50 " 50-59"         NA White   White College Grad  
 4 57313 2009_10  female    74 " 70+"          889 White   <NA>  College Grad  
 5 56047 2009_10  female    27 " 20-29"        329 White   <NA>  9 - 11th Grade
 6 57056 2009_10  male      26 " 20-29"        316 Mexican <NA>  High School   
 7 54643 2009_10  female    41 " 40-49"        503 White   <NA>  College Grad  
 8 53095 2009_10  female    52 " 50-59"        632 White   <NA>  9 - 11th Grade
 9 67434 2011_12  male      56 " 50-59"         NA White   White College Grad  
10 60273 2009_10  male      39 " 30-39"        472 Black   <NA>  9 - 11th Grade
# ℹ 125 more rows
# ℹ 67 more variables: MaritalStatus <fct>, HHIncome <fct>, HHIncomeMid <int>,
#   Poverty <dbl>, HomeRooms <int>, HomeOwn <fct>, Work <fct>, Weight <dbl>,
#   Length <dbl>, HeadCirc <dbl>, Height <dbl>, BMI <dbl>,
#   BMICatUnder20yrs <fct>, BMI_WHO <fct>, Pulse <int>, BPSysAve <int>,
#   BPDiaAve <int>, BPSys1 <int>, BPDia1 <int>, BPSys2 <int>, BPDia2 <int>,
#   BPSys3 <int>, BPDia3 <int>, Testosterone <dbl>, DirectChol <dbl>, …
…
