BMSC 620: Introduction to Biostatistics – Comparing Two Means: Paired and Independent Samples
…
Each row is one person

Calculate the paired differences

For paired data, we create a new variable: the difference

# Calculate difference: After - Before
chol <- chol %>%
  mutate(DiffChol = After - Before)

# Look at first few differences
chol

# A tibble: 43 × 3
   Before After DiffChol
    <dbl> <dbl>    <dbl>
 1    195   146      -49
 2    145   155       10
 3    205   178      -27
 4    159   146      -13
 5    244   208      -36
 6    166   147      -19
 7    250   202      -48
 8    236   215      -21
 9    192   184       -8
10    224   208      -16
# ℹ 33 more rows
…
Running a paired t-test in R (4/5)

Option 3: Use rstatix package`

Requires that the data are in long format which means that

all of the outcome values are in one column and

another column indicates which group the values are from

chol_long

# A tibble: 86 × 4
   DiffChol ID    Time   Cholesterol
      <dbl> <fct> <fct>        <dbl>
 1      -49 1     Before         195
 2      -49 1     After          146
 3       10 2     Before         145
 4       10 2     After          155
 5      -27 3     Before         205
 6      -27 3     After          178
 7      -13 4     Before         159
 8      -13 4     After          146
 9      -36 5     Before         244
10      -36 5     After          208
# ℹ 76 more rows
…
