BMSC 620: Introduction to Biostatistics – Exploratory Data Analysis and Data Visualization
…
Tibbles: tidyverse data frames

A tibble is the tidyverse version of a data frame.

nhanes.samp.adult

# A tibble: 135 × 76
      ID SurveyYr Gender   Age AgeDecade AgeMonths Race1   Race3 Education     
 * <int> <fct>    <fct>  <int> <fct>         <int> <fct>   <fct> <fct>         
 1 63147 2011_12  male      41 " 40-49"         NA White   White Some College  
 2 57165 2009_10  male      48 " 40-49"        586 Black   <NA>  High School   
 3 69465 2011_12  female    50 " 50-59"         NA White   White College Grad  
 4 57313 2009_10  female    74 " 70+"          889 White   <NA>  College Grad  
 5 56047 2009_10  female    27 " 20-29"        329 White   <NA>  9 - 11th Grade
 6 57056 2009_10  male      26 " 20-29"        316 Mexican <NA>  High School   
 7 54643 2009_10  female    41 " 40-49"        503 White   <NA>  College Grad  
 8 53095 2009_10  female    52 " 50-59"        632 White   <NA>  9 - 11th Grade
 9 67434 2011_12  male      56 " 50-59"         NA White   White College Grad  
10 60273 2009_10  male      39 " 30-39"        472 Black   <NA>  9 - 11th Grade
# ℹ 125 more rows
# ℹ 67 more variables: MaritalStatus <fct>, HHIncome <fct>, HHIncomeMid <int>,
#   Poverty <dbl>, HomeRooms <int>, HomeOwn <fct>, Work <fct>, Weight <dbl>,
#   Length <dbl>, HeadCirc <dbl>, Height <dbl>, BMI <dbl>,
#   BMICatUnder20yrs <fct>, BMI_WHO <fct>, Pulse <int>, BPSysAve <int>,
#   BPDiaAve <int>, BPSys1 <int>, BPDia1 <int>, BPSys2 <int>, BPDia2 <int>,
#   BPSys3 <int>, BPDia3 <int>, Testosterone <dbl>, DirectChol <dbl>, …
…
mutate() - creating new variables

mutate() creates new columns or modifies existing ones.

Important: mutate() doesn’t change your original data unless you save it!

Create a single new column

nhanes.samp.adult %>%
  mutate(height_m = Height / 100) %>%
  select(ID, Height, height_m)

# A tibble: 135 × 3
      ID Height height_m
   <int>  <dbl>    <dbl>
 1 63147   189.     1.89
 2 57165   168.     1.68
 3 69465   162.     1.62
 4 57313   158.     1.58
 5 56047   168.     1.68
 6 57056   166.     1.66
 7 54643   156.     1.56
 8 53095   156.     1.56
 9 67434   181.     1.81
10 60273   178.     1.78
# ℹ 125 more rows
…
First matching condition wins

mutate() - multiple columns at once

You can create several new variables in one mutate() call.

nhanes.samp.adult %>%
  mutate(
    height_m = Height / 100,
    weight_kg = Weight * 0.453592,
    bmi_calculated = weight_kg / (height_m^2)
  ) %>%
  select(ID, Height, Weight, BMI, height_m, weight_kg, bmi_calculated)

# A tibble: 135 × 7
      ID Height Weight   BMI height_m weight_kg bmi_calculated
   <int>  <dbl>  <dbl> <dbl>    <dbl>     <dbl>          <dbl>
 1 63147   189.  107.   30       1.89      48.4           13.6
 2 57165   168.   77.4  27.4     1.68      35.1           12.4
 3 69465   162.   70.5  26.9     1.62      32.0           12.2
 4 57313   158.   61.7  24.7     1.58      28.0           11.2
 5 56047   168.   70.3  24.9     1.68      31.9           11.3
 6 57056   166.   92.6  33.7     1.66      42.0           15.3
 7 54643   156.   55.6  23.0     1.56      25.2           10.4
 8 53095   156.   82    33.5     1.56      37.2           15.2
 9 67434   181.   88.2  26.8     1.81      40.0           12.2
10 60273   178.  119    37.5     1.78      54.0           17.0
# ℹ 125 more rows
…
group_by() - preparing for summaries

group_by() groups your data by one or more variables.

What if I want to quickly look at group differences?

It will not change how the data look, but changes the actions of following functions

By itself, it doesn’t change how the data looks:

nhanes.samp.adult %>%
  group_by(Gender)

# A tibble: 135 × 76
# Groups:   Gender [2]
      ID SurveyYr Gender   Age AgeDecade AgeMonths Race1   Race3 Education     
   <int> <fct>    <fct>  <int> <fct>         <int> <fct>   <fct> <fct>         
 1 63147 2011_12  male      41 " 40-49"         NA White   White Some College  
 2 57165 2009_10  male      48 " 40-49"        586 Black   <NA>  High School   
 3 69465 2011_12  female    50 " 50-59"         NA White   White College Grad  
 4 57313 2009_10  female    74 " 70+"          889 White   <NA>  College Grad  
 5 56047 2009_10  female    27 " 20-29"        329 White   <NA>  9 - 11th Grade
 6 57056 2009_10  male      26 " 20-29"        316 Mexican <NA>  High School   
 7 54643 2009_10  female    41 " 40-49"        503 White   <NA>  College Grad  
 8 53095 2009_10  female    52 " 50-59"        632 White   <NA>  9 - 11th Grade
 9 67434 2011_12  male      56 " 50-59"         NA White   White College Grad  
10 60273 2009_10  male      39 " 30-39"        472 Black   <NA>  9 - 11th Grade
# ℹ 125 more rows
# ℹ 67 more variables: MaritalStatus <fct>, HHIncome <fct>, HHIncomeMid <int>,
#   Poverty <dbl>, HomeRooms <int>, HomeOwn <fct>, Work <fct>, Weight <dbl>,
#   Length <dbl>, HeadCirc <dbl>, Height <dbl>, BMI <dbl>,
#   BMICatUnder20yrs <fct>, BMI_WHO <fct>, Pulse <int>, BPSysAve <int>,
#   BPDiaAve <int>, BPSys1 <int>, BPDia1 <int>, BPSys2 <int>, BPDia2 <int>,
#   BPSys3 <int>, BPDia3 <int>, Testosterone <dbl>, DirectChol <dbl>, …
…
