R: Working with data using the tidyverse – BMSC 620: Introduction to Biostatistics
…
Install (once per computer):

install.packages("tidyverse")

Load (every session):

library(tidyverse)

What data are we using today?

We’ll use starwars (built into dplyr):

df

# A tibble: 87 × 14
   name     height  mass hair_color skin_color eye_color birth_year sex   gender
   <chr>     <int> <dbl> <chr>      <chr>      <chr>          <dbl> <chr> <chr> 
 1 Luke Sk…    172    77 blond      fair       blue            19   male  mascu…
 2 C-3PO       167    75 <NA>       gold       yellow         112   none  mascu…
 3 R2-D2        96    32 <NA>       white, bl… red             33   none  mascu…
 4 Darth V…    202   136 none       white      yellow          41.9 male  mascu…
 5 Leia Or…    150    49 brown      light      brown           19   fema… femin…
 6 Owen La…    178   120 brown, gr… light      blue            52   male  mascu…
 7 Beru Wh…    165    75 brown      light      blue            47   fema… femin…
 8 R5-D4        97    32 <NA>       white, red red             NA   none  mascu…
 9 Biggs D…    183    84 black      light      brown           24   male  mascu…
10 Obi-Wan…    182    77 auburn, w… fair       blue-gray       57   male  mascu…
# ℹ 77 more rows
# ℹ 5 more variables: homeworld <chr>, species <chr>, films <list>,
#   vehicles <list>, starships <list>
…
Keep rows where a condition is TRUE:

df[df$species == "Human", ]

Read it out loud:

“Give me the rows where species equals Human.”

The same idea in dplyr: filter()

df %>%
  filter(species == "Human")

# A tibble: 35 × 14
   name     height  mass hair_color skin_color eye_color birth_year sex   gender
   <chr>     <int> <dbl> <chr>      <chr>      <chr>          <dbl> <chr> <chr> 
 1 Luke Sk…    172    77 blond      fair       blue            19   male  mascu…
 2 Darth V…    202   136 none       white      yellow          41.9 male  mascu…
 3 Leia Or…    150    49 brown      light      brown           19   fema… femin…
 4 Owen La…    178   120 brown, gr… light      blue            52   male  mascu…
 5 Beru Wh…    165    75 brown      light      blue            47   fema… femin…
 6 Biggs D…    183    84 black      light      brown           24   male  mascu…
 7 Obi-Wan…    182    77 auburn, w… fair       blue-gray       57   male  mascu…
 8 Anakin …    188    84 blond      fair       blue            41.9 male  mascu…
 9 Wilhuff…    180    NA auburn, g… fair       blue            64   male  mascu…
10 Han Solo    180    80 brown      fair       brown           29   male  mascu…
# ℹ 25 more rows
# ℹ 5 more variables: homeworld <chr>, species <chr>, films <list>,
#   vehicles <list>, starships <list>
…
mutate() create new columns

summarize() collapse to summaries

group_by() do summaries by groups

If you learn these five, you can do most things we need in this course.

filter(): keep rows that match a condition

df %>%
  filter(species == "Human")

# A tibble: 35 × 14
   name     height  mass hair_color skin_color eye_color birth_year sex   gender
   <chr>     <int> <dbl> <chr>      <chr>      <chr>          <dbl> <chr> <chr> 
 1 Luke Sk…    172    77 blond      fair       blue            19   male  mascu…
 2 Darth V…    202   136 none       white      yellow          41.9 male  mascu…
 3 Leia Or…    150    49 brown      light      brown           19   fema… femin…
 4 Owen La…    178   120 brown, gr… light      blue            52   male  mascu…
 5 Beru Wh…    165    75 brown      light      blue            47   fema… femin…
 6 Biggs D…    183    84 black      light      brown           24   male  mascu…
 7 Obi-Wan…    182    77 auburn, w… fair       blue-gray       57   male  mascu…
 8 Anakin …    188    84 blond      fair       blue            41.9 male  mascu…
 9 Wilhuff…    180    NA auburn, g… fair       blue            64   male  mascu…
10 Han Solo    180    80 brown      fair       brown           29   male  mascu…
# ℹ 25 more rows
# ℹ 5 more variables: homeworld <chr>, species <chr>, films <list>,
#   vehicles <list>, starships <list>
…
(, is like “and” inside filter().)

select(): keep columns by name

df %>%
  select(name, species, height, mass)

# A tibble: 87 × 4
   name               species height  mass
   <chr>              <chr>    <int> <dbl>
 1 Luke Skywalker     Human      172    77
 2 C-3PO              Droid      167    75
 3 R2-D2              Droid       96    32
 4 Darth Vader        Human      202   136
 5 Leia Organa        Human      150    49
 6 Owen Lars          Human      178   120
 7 Beru Whitesun Lars Human      165    75
 8 R5-D4              Droid       97    32
 9 Biggs Darklighter  Human      183    84
10 Obi-Wan Kenobi     Human      182    77
# ℹ 77 more rows

Drop columns with -:

df %>%
  select(-films, -vehicles, -starships)

# A tibble: 87 × 11
   name     height  mass hair_color skin_color eye_color birth_year sex   gender
   <chr>     <int> <dbl> <chr>      <chr>      <chr>          <dbl> <chr> <chr> 
 1 Luke Sk…    172    77 blond      fair       blue            19   male  mascu…
 2 C-3PO       167    75 <NA>       gold       yellow         112   none  mascu…
 3 R2-D2        96    32 <NA>       white, bl… red             33   none  mascu…
 4 Darth V…    202   136 none       white      yellow          41.9 male  mascu…
 5 Leia Or…    150    49 brown      light      brown           19   fema… femin…
 6 Owen La…    178   120 brown, gr… light      blue            52   male  mascu…
 7 Beru Wh…    165    75 brown      light      blue            47   fema… femin…
 8 R5-D4        97    32 <NA>       white, red red             NA   none  mascu…
 9 Biggs D…    183    84 black      light      brown           24   male  mascu…
10 Obi-Wan…    182    77 auburn, w… fair       blue-gray       57   male  mascu…
# ℹ 77 more rows
# ℹ 2 more variables: homeworld <chr>, species <chr>

mutate(): create a new column

Example: convert height from cm to meters

df %>%
  mutate(height_m = height / 100) %>%
  select(name, height, height_m)

# A tibble: 87 × 3
   name               height height_m
   <chr>               <int>    <dbl>
 1 Luke Skywalker        172     1.72
 2 C-3PO                 167     1.67
 3 R2-D2                  96     0.96
 4 Darth Vader           202     2.02
 5 Leia Organa           150     1.5 
 6 Owen Lars             178     1.78
 7 Beru Whitesun Lars    165     1.65
 8 R5-D4                  97     0.97
 9 Biggs Darklighter     183     1.83
10 Obi-Wan Kenobi        182     1.82
# ℹ 77 more rows
…
group_by() + summarize(): summaries by group

df %>%
  group_by(species) %>%
  summarize(
    n = n(),
    mean_height = mean(height, na.rm = TRUE),
    .groups = "drop"
  ) %>%
  arrange(desc(n))

# A tibble: 38 × 3
   species      n mean_height
   <chr>    <int>       <dbl>
 1 Human       35        178 
 2 Droid        6        131.
 3 <NA>         4        175 
 4 Gungan       3        209.
 5 Kaminoan     2        221 
 6 Mirialan     2        168 
 7 Twi'lek      2        179 
 8 Wookiee      2        231 
 9 Zabrak       2        173 
10 Aleena       1         79 
# ℹ 28 more rows
…
