BMSC 620: Introduction to Biostatistics – Nonparametric Tests: When the Assumptions Break Down
…
The IL-6 example

Serum interleukin-6 (IL-6) is an inflammatory cytokine commonly elevated in autoimmune and infectious disease. A researcher measured IL-6 levels (pg/mL) in patients classified into three disease severity groups.

Mild (\(n = 8\)), Moderate (\(n = 8\)), Severe (\(n = 8\))

IL-6 values are highly right-skewed — a classic case for the Kruskal-Wallis test

Question: Do IL-6 levels differ across disease severity groups?

IL-6 data

il6_data

# A tibble: 24 × 2
   severity   il6
   <fct>    <dbl>
 1 Mild       3.1
 2 Mild       3.2
 3 Mild       3.8
 4 Mild       3.7
 5 Mild       3.1
 6 Mild       2.8
 7 Mild       5.4
 8 Mild       4.2
 9 Moderate  23  
10 Moderate   8.8
# ℹ 14 more rows
…
